206 Assignment 4
…
206 Assignment 4

Sidney Gerst

November 13, 2018

Load Packages and read in files

Clean up Data before converting to tidy

## # A tibble: 2,878 x 4
##     YEAR SITE   SIZE COUNT
##    <int> <chr> <int> <int>
##  1  2012 IVEE     70     1
##  2  2012 IVEE     60     1
##  3  2012 IVEE     65     1
##  4  2012 IVEE     70     1
##  5  2012 IVEE     85     1
##  6  2012 IVEE     60     1
##  7  2012 IVEE     65     1
##  8  2012 IVEE     67     1
##  9  2012 IVEE     70     1
## 10  2012 IVEE     85     1
## # ... with 2,868 more rows

## # A tibble: 5,741 x 3
##     YEAR SITE  TRAPS
##    <int> <chr> <int>
##  1  2012 CARP      4
##  2  2012 CARP     14
##  3  2012 CARP     10
##  4  2012 CARP      7
##  5  2012 CARP     11
##  6  2012 CARP     12
##  7  2012 CARP     12
##  8  2012 CARP      2
##  9  2012 CARP     13
## 10  2012 CARP      5
## # ... with 5,731 more rows
…
